Milky Shooter
Idle:		1-37	
Idle Alt:	38-74

Milky Bomber
Idle:		1-37		
Idle Alt:	38-74

Milky Bouncer
Idle:		1-29		
Idle Alt:	30-58

Milky Bulky
Idle:		1-37		
Idle Alt:	38-90

Milky Shock
Idle:		1-37		
Idle Alt:	38-74


Milky Mutate
Idle:		1-37		
Idle Alt:	38-74

Milky Bubble
Idle:		1-37		
Idle Alt:	38-74

Milky si Nano
Idle No Weapon:	1-37
Idle:		38-74		
Idle Alt:	75-111