%YAML 1.1
%TAG !u! tag:unity3d.com,2011:
--- !u!74 &7400000
AnimationClip:
  m_ObjectHideFlags: 0
  m_CorrespondingSourceObject: {fileID: 0}
  m_PrefabInstance: {fileID: 0}
  m_PrefabAsset: {fileID: 0}
  m_Name: Load
  serializedVersion: 6
  m_Legacy: 0
  m_Compressed: 0
  m_UseHighQualityCurve: 1
  m_RotationCurves: []
  m_CompressedRotationCurves: []
  m_EulerCurves: []
  m_PositionCurves: []
  m_ScaleCurves: []
  m_FloatCurves: []
  m_PPtrCurves:
  - curve:
    - time: 0
      value: {fileID: 21300000, guid: c08f01eaec4c22f4196e9d6d8ec80bff, type: 3}
    - time: 0.16666667
      value: {fileID: 21300000, guid: 7845547a77c2e0b439d2ac75f9f2b630, type: 3}
    - time: 0.33333334
      value: {fileID: 21300000, guid: ebf1e516ee8cb3640a2315439c5d41b3, type: 3}
    - time: 0.5
      value: {fileID: 21300000, guid: f89bfcea4e9a9da4691e279901dded7f, type: 3}
    - time: 0.6666667
      value: {fileID: 21300000, guid: b8efea4265bb62c4dafc8ec39080a771, type: 3}
    - time: 0.8333333
      value: {fileID: 21300000, guid: f4755763468205e42a2955749e86ae52, type: 3}
    - time: 1
      value: {fileID: 21300000, guid: 1da5e32ed0bbaaf4f98d848d297e746c, type: 3}
    attribute: m_Sprite
    path: 
    classID: 114
    script: {fileID: -765806418, guid: f70555f144d8491a825f0804e09c671c, type: 3}
  m_SampleRate: 60
  m_WrapMode: 0
  m_Bounds:
    m_Center: {x: 0, y: 0, z: 0}
    m_Extent: {x: 0, y: 0, z: 0}
  m_ClipBindingConstant:
    genericBindings:
    - serializedVersion: 2
      path: 0
      attribute: 2015549526
      script: {fileID: -765806418, guid: f70555f144d8491a825f0804e09c671c, type: 3}
      typeID: 114
      customType: 0
      isPPtrCurve: 1
    pptrCurveMapping:
    - {fileID: 21300000, guid: c08f01eaec4c22f4196e9d6d8ec80bff, type: 3}
    - {fileID: 21300000, guid: 7845547a77c2e0b439d2ac75f9f2b630, type: 3}
    - {fileID: 21300000, guid: ebf1e516ee8cb3640a2315439c5d41b3, type: 3}
    - {fileID: 21300000, guid: f89bfcea4e9a9da4691e279901dded7f, type: 3}
    - {fileID: 21300000, guid: b8efea4265bb62c4dafc8ec39080a771, type: 3}
    - {fileID: 21300000, guid: f4755763468205e42a2955749e86ae52, type: 3}
    - {fileID: 21300000, guid: 1da5e32ed0bbaaf4f98d848d297e746c, type: 3}
  m_AnimationClipSettings:
    serializedVersion: 2
    m_AdditiveReferencePoseClip: {fileID: 0}
    m_AdditiveReferencePoseTime: 0
    m_StartTime: 0
    m_StopTime: 1.0166667
    m_OrientationOffsetY: 0
    m_Level: 0
    m_CycleOffset: 0
    m_HasAdditiveReferencePose: 0
    m_LoopTime: 1
    m_LoopBlend: 0
    m_LoopBlendOrientation: 0
    m_LoopBlendPositionY: 0
    m_LoopBlendPositionXZ: 0
    m_KeepOriginalOrientation: 0
    m_KeepOriginalPositionY: 1
    m_KeepOriginalPositionXZ: 0
    m_HeightFromFeet: 0
    m_Mirror: 0
  m_EditorCurves: []
  m_EulerEditorCurves: []
  m_HasGenericRootTransform: 0
  m_HasMotionFloatCurves: 0
  m_Events: []
